[
  {
    "cases":4211.4304151117,
    "deaths":248.5679748109,
    "recovered":796.8792370534,
    "active":3165.9832032474,
    "serious":50.0934592186,
    "tests":29233.9125291804,
    "cca3":"USA",
    "country":"United States",
    "cca2":"US",
    "population":329.064917,
    "flag":"\ud83c\uddfa\ud83c\uddf8"
  },
  {
    "cases":5737.3020338416,
    "deaths":572.22603459,
    "recovered":3805.2688957407,
    "active":1359.8071035109,
    "serious":35.3041039887,
    "tests":52801.2672504411,
    "cca3":"ESP",
    "country":"Spain",
    "cca2":"ES",
    "population":46.736776,
    "flag":"\ud83c\uddea\ud83c\uddf8"
  },
  {
    "cases":3303.1161241526,
    "deaths":474.8247938714,
    "recovered":null,
    "active":2823.1973109738,
    "serious":23.0859770356,
    "tests":28457.9461755258,
    "cca3":"GBR",
    "country":"United Kingdom",
    "cca2":"GB",
    "population":67.530172,
    "flag":"\ud83c\uddec\ud83c\udde7"
  },
  {
    "cases":1517.3824417989,
    "deaths":13.7723241903,
    "recovered":272.8483201082,
    "active":1230.7617975004,
    "serious":15.7672203274,
    "tests":38641.7757191607,
    "cca3":"RUS",
    "country":"Russia",
    "cca2":"RU",
    "population":145.872256,
    "flag":"\ud83c\uddf7\ud83c\uddfa"
  },
  {
    "cases":3630.2845207046,
    "deaths":507.6624595428,
    "recovered":1760.3116098535,
    "active":1362.3104513083,
    "serious":16.4987409182,
    "tests":43049.5255373342,
    "cca3":"ITA",
    "country":"Italy",
    "cca2":"IT",
    "population":60.550075,
    "flag":"\ud83c\uddee\ud83c\uddf9"
  },
  {
    "cases":2724.1477194562,
    "deaths":409.0758677819,
    "recovered":870.9386902399,
    "active":1444.1331614344,
    "serious":41.6399712279,
    "tests":21259.6158853911,
    "cca3":"FRA",
    "country":"France",
    "cca2":"FR",
    "population":65.129728,
    "flag":"\ud83c\uddeb\ud83c\uddf7"
  },
  {
    "cases":2066.3566341458,
    "deaths":91.7297780351,
    "recovered":1743.5602516828,
    "active":231.0666044279,
    "serious":18.8703994496,
    "tests":32996.4979005184,
    "cca3":"DEU",
    "country":"Germany",
    "cca2":"DE",
    "population":83.517045,
    "flag":"\ud83c\udde9\ud83c\uddea"
  },
  {
    "cases":801.4374749108,
    "deaths":55.0818576343,
    "recovered":319.2805070821,
    "active":427.0751101944,
    "serious":39.4125498324,
    "tests":1608.8735418014,
    "cca3":"BRA",
    "country":"Brazil",
    "cca2":"BR",
    "population":211.049527,
    "flag":"\ud83c\udde7\ud83c\uddf7"
  },
  {
    "cases":1675.316372969,
    "deaths":46.0388076824,
    "recovered":1148.0335849566,
    "active":481.24398033,
    "serious":13.4964065218,
    "tests":16820.4060392703,
    "cca3":"TUR",
    "country":"Turkey",
    "cca2":"TR",
    "population":83.429615,
    "flag":"\ud83c\uddf9\ud83c\uddf7"
  },
  {
    "cases":1318.0659948646,
    "deaths":80.6257999714,
    "recovered":1054.3707831109,
    "active":183.0694117824,
    "serious":32.6000803773,
    "tests":7252.3902082239,
    "cca3":"IRN",
    "country":"Iran",
    "cca2":"IR",
    "population":82.913906,
    "flag":"\ud83c\uddee\ud83c\uddf7"
  },
  {
    "cases":51.7908961537,
    "deaths":1.678842355,
    "recovered":16.5022738719,
    "active":33.6097799268,
    "serious":null,
    "tests":1224.8728436823,
    "cca3":"IND",
    "country":"India",
    "cca2":"IN",
    "population":1366.417754,
    "flag":"\ud83c\uddee\ud83c\uddf3"
  },
  {
    "cases":1870.5972062209,
    "deaths":133.4632521779,
    "recovered":881.9320132901,
    "active":855.201940753,
    "serious":13.4184964136,
    "tests":30364.9347210197,
    "cca3":"CAN",
    "country":"Canada",
    "cca2":"CA",
    "population":37.411047,
    "flag":"\ud83c\udde8\ud83c\udde6"
  },
  {
    "cases":2116.9191336706,
    "deaths":60.3190610724,
    "recovered":689.1937187095,
    "active":1367.4063538887,
    "serious":24.1460800316,
    "tests":15775.5107257349,
    "cca3":"PER",
    "country":"Peru",
    "cca2":"PE",
    "population":32.510453,
    "flag":"\ud83c\uddf5\ud83c\uddea"
  },
  {
    "cases":4631.898841943,
    "deaths":754.5500049916,
    "recovered":1186.9841987332,
    "active":2690.3646382181,
    "serious":41.4235560338,
    "tests":50670.8016272698,
    "cca3":"BEL",
    "country":"Belgium",
    "cca2":"BE",
    "population":11.539328,
    "flag":"\ud83c\udde7\ud83c\uddea"
  },
  {
    "cases":2502.6422563319,
    "deaths":319.1178870372,
    "recovered":null,
    "active":2168.9020320954,
    "serious":29.127695701,
    "tests":15508.8017696537,
    "cca3":"NLD",
    "country":"Netherlands",
    "cca2":"NL",
    "population":17.09713,
    "flag":"\ud83c\uddf3\ud83c\uddf1"
  },
  {
    "cases":1196.8416034678,
    "deaths":7.4412300406,
    "recovered":371.6821452033,
    "active":817.7182282239,
    "serious":4.3480128472,
    "tests":13638.4323248434,
    "cca3":"SAU",
    "country":"Saudi Arabia",
    "cca2":"SA",
    "population":34.268528,
    "flag":"\ud83c\uddf8\ud83c\udde6"
  },
  {
    "cases":284.7489662379,
    "deaths":28.0069385407,
    "recovered":181.0692080297,
    "active":75.6728196675,
    "serious":2.9629506768,
    "tests":1026.4978011575,
    "cca3":"MEX",
    "country":"Mexico",
    "cca2":"MX",
    "population":127.575529,
    "flag":"\ud83c\uddf2\ud83c\uddfd"
  },
  {
    "cases":142.8714453715,
    "deaths":3.079902203,
    "recovered":37.9192756986,
    "active":101.8722674699,
    "serious":0.5125474431,
    "tests":1361.6861772853,
    "cca3":"PAK",
    "country":"Pakistan",
    "cca2":"PK",
    "population":216.565318,
    "flag":"\ud83c\uddf5\ud83c\uddf0"
  },
  {
    "cases":3531.9183854952,
    "deaths":214.7505082138,
    "recovered":3119.4111762217,
    "active":197.7567010597,
    "serious":10.3592386076,
    "tests":36410.1629950538,
    "cca3":"CHE",
    "country":"Switzerland",
    "cca2":"CH",
    "population":8.591365,
    "flag":"\ud83c\udde8\ud83c\udded"
  },
  {
    "cases":1586.2673977332,
    "deaths":17.0430219695,
    "recovered":717.8647488993,
    "active":851.3596268644,
    "serious":30.2869802182,
    "tests":15515.8511184918,
    "cca3":"CHL",
    "country":"Chile",
    "cca2":"CL",
    "population":18.952038,
    "flag":"\ud83c\udde8\ud83c\uddf1"
  },
  {
    "cases":1698.4905082187,
    "deaths":123.4627449297,
    "recovered":197.5979502767,
    "active":1377.4298130124,
    "serious":10.4180684533,
    "tests":4851.423954259,
    "cca3":"ECU",
    "country":"Ecuador",
    "cca2":"EC",
    "population":17.373662,
    "flag":"\ud83c\uddea\ud83c\udde8"
  },
  {
    "cases":2706.6784520956,
    "deaths":111.8696538602,
    "recovered":249.2620172113,
    "active":2345.5467810241,
    "serious":10.9522738045,
    "tests":50621.0183717548,
    "cca3":"PRT",
    "country":"Portugal",
    "cca2":"PT",
    "population":10.226187,
    "flag":"\ud83c\uddf5\ud83c\uddf9"
  },
  {
    "cases":2657.3328886843,
    "deaths":324.4197932342,
    "recovered":495.2981548425,
    "active":1837.6149406076,
    "serious":35.8695103084,
    "tests":14796.1730022352,
    "cca3":"SWE",
    "country":"Sweden",
    "cca2":"SE",
    "population":10.036379,
    "flag":"\ud83c\uddf8\ud83c\uddea"
  },
  {
    "cases":2529.0901971994,
    "deaths":14.2820704686,
    "recovered":690.9348313356,
    "active":1823.8732953952,
    "serious":9.7329665416,
    "tests":28993.6609823674,
    "cca3":"BLR",
    "country":"Belarus",
    "cca2":"BY",
    "population":9.452411,
    "flag":"\ud83c\udde7\ud83c\uddfe"
  },
  {
    "cases":4104.1724489808,
    "deaths":3.6179842762,
    "recovered":555.6190138512,
    "active":3544.9354508534,
    "serious":4.1348391728,
    "tests":30253.9290878528,
    "cca3":"SGP",
    "country":"Singapore",
    "cca2":"SG",
    "population":5.804337,
    "flag":"\ud83c\uddf8\ud83c\uddec"
  },
  {
    "cases":8341.2574631885,
    "deaths":4.9433858733,
    "recovered":1002.8011342952,
    "active":7333.5129430201,
    "serious":25.4231273483,
    "tests":46271.5041699225,
    "cca3":"QAT",
    "country":"Qatar",
    "cca2":"QA",
    "population":2.832067,
    "flag":"\ud83c\uddf6\ud83c\udde6"
  },
  {
    "cases":4738.3561068675,
    "deaths":300.461137185,
    "recovered":3504.3558672359,
    "active":933.5391024466,
    "serious":14.7465588802,
    "tests":43985.912940003,
    "cca3":"IRL",
    "country":"Ireland",
    "cca2":"IE",
    "population":4.882495,
    "flag":"\ud83c\uddee\ud83c\uddea"
  },
  {
    "cases":1932.1369395659,
    "deaths":20.5720693322,
    "recovered":550.7378362011,
    "active":1360.8270340327,
    "serious":0.1023486036,
    "tests":122818.3243711779,
    "cca3":"ARE",
    "country":"United Arab Emirates",
    "cca2":"AE",
    "population":9.770529,
    "flag":"\ud83c\udde6\ud83c\uddea"
  },
  {
    "cases":1937.46561515,
    "deaths":30.2839045625,
    "recovered":1390.125122999,
    "active":517.0565875885,
    "serious":7.7470453532,
    "tests":54763.6288428133,
    "cca3":"ISR",
    "country":"Israel",
    "cca2":"IL",
    "population":8.519377,
    "flag":"\ud83c\uddee\ud83c\uddf1"
  },
  {
    "cases":430.9042432903,
    "deaths":21.4053253282,
    "recovered":153.5060075326,
    "active":255.9929104296,
    "serious":4.2229988317,
    "tests":12965.0287132248,
    "cca3":"POL",
    "country":"Poland",
    "cca2":"PL",
    "population":37.887768,
    "flag":"\ud83c\uddf5\ud83c\uddf1"
  },
  {
    "cases":1773.5141375274,
    "deaths":69.2342756118,
    "recovered":1570.1663699643,
    "active":134.1134919513,
    "serious":7.59343668,
    "tests":35676.1988864002,
    "cca3":"AUT",
    "country":"Austria",
    "cca2":"AT",
    "population":8.955102,
    "flag":"\ud83c\udde6\ud83c\uddf9"
  },
  {
    "cases":124.9169352042,
    "deaths":4.9897406439,
    "recovered":65.371120316,
    "active":54.5560742442,
    "serious":2.1046773332,
    "tests":1720.0337558714,
    "cca3":"JPN",
    "country":"Japan",
    "cca2":"JP",
    "population":126.860301,
    "flag":"\ud83c\uddef\ud83c\uddf5"
  },
  {
    "cases":96.2365498443,
    "deaths":1.4658425475,
    "recovered":17.7986404721,
    "active":76.9720668247,
    "serious":0.0061332324,
    "tests":796.492227744,
    "cca3":"BGD",
    "country":"Bangladesh",
    "cca2":"BD",
    "population":163.046161,
    "flag":"\ud83c\udde7\ud83c\udde9"
  },
  {
    "cases":355.6877928577,
    "deaths":9.2740682187,
    "recovered":74.7380791741,
    "active":271.6756454649,
    "serious":4.7052257874,
    "tests":4126.7785128386,
    "cca3":"UKR",
    "country":"Ukraine",
    "cca2":"UA",
    "population":43.993638,
    "flag":"\ud83c\uddfa\ud83c\udde6"
  },
  {
    "cases":804.9758122533,
    "deaths":50.7112039795,
    "recovered":374.1371413764,
    "active":380.1274668974,
    "serious":13.1683879988,
    "tests":13541.1824809625,
    "cca3":"ROU",
    "country":"Romania",
    "cca2":"RO",
    "population":19.364557,
    "flag":"\ud83c\uddf7\ud83c\uddf4"
  },
  {
    "cases":52.7112057646,
    "deaths":3.6618860787,
    "recovered":10.645705139,
    "active":38.4036145469,
    "serious":null,
    "tests":596.2149149189,
    "cca3":"IDN",
    "country":"Indonesia",
    "cca2":"ID",
    "population":270.625568,
    "flag":"\ud83c\uddee\ud83c\udde9"
  },
  {
    "cases":230.6938517377,
    "deaths":9.5154012729,
    "recovered":56.119015858,
    "active":165.0594346068,
    "serious":2.5824679864,
    "tests":3007.5024866684,
    "cca3":"COL",
    "country":"Colombia",
    "cca2":"CO",
    "population":50.339443,
    "flag":"\ud83c\udde8\ud83c\uddf4"
  },
  {
    "cases":102.5374314577,
    "deaths":6.7149716073,
    "recovered":18.4892951005,
    "active":77.3331647499,
    "serious":0.2867274378,
    "tests":1601.4559834305,
    "cca3":"PHL",
    "country":"Philippines",
    "cca2":"PH",
    "population":108.116615,
    "flag":"\ud83c\uddf5\ud83c\udded"
  },
  {
    "cases":213.4882234383,
    "deaths":5.0365729377,
    "recovered":188.7738771624,
    "active":19.6777733381,
    "serious":1.0736880294,
    "tests":13292.0625875007,
    "cca3":"KOR",
    "country":"South Korea",
    "cca2":"KR",
    "population":51.225308,
    "flag":"\ud83c\uddf0\ud83c\uddf7"
  },
  {
    "cases":181.9042809837,
    "deaths":3.5178634888,
    "recovered":74.4045204887,
    "active":103.9818970062,
    "serious":1.3149295565,
    "tests":6080.5587323533,
    "cca3":"ZAF",
    "country":"South Africa",
    "cca2":"ZA",
    "population":58.55827,
    "flag":"\ud83c\uddff\ud83c\udde6"
  },
  {
    "cases":990.2264260648,
    "deaths":36.5957293063,
    "recovered":267.2512547307,
    "active":686.3794420278,
    "serious":12.4779331477,
    "tests":3968.2620976821,
    "cca3":"DOM",
    "country":"Dominican Republic",
    "cca2":"DO",
    "population":10.738958,
    "flag":"\ud83c\udde9\ud83c\uddf4"
  },
  {
    "cases":1821.4182009454,
    "deaths":92.3443261775,
    "recovered":1442.8584397863,
    "active":286.2154349816,
    "serious":7.4499174965,
    "tests":56577.7920384984,
    "cca3":"DNK",
    "country":"Denmark",
    "cca2":"DK",
    "population":5.771876,
    "flag":"\ud83c\udde9\ud83c\uddf0"
  },
  {
    "cases":1160.0236427775,
    "deaths":24.851135429,
    "recovered":375.0469521165,
    "active":760.1255552319,
    "serious":3.3058849883,
    "tests":16598.2785458894,
    "cca3":"SRB",
    "country":"Serbia",
    "cca2":"RS",
    "population":8.772235,
    "flag":"\ud83c\uddf7\ud83c\uddf8"
  },
  {
    "cases":97.0832461342,
    "deaths":5.3093956689,
    "recovered":21.6360363845,
    "active":70.1378140808,
    "serious":0.4084150515,
    "tests":896.5208446625,
    "cca3":"EGY",
    "country":"Egypt",
    "cca2":"EG",
    "population":100.388073,
    "flag":"\ud83c\uddea\ud83c\uddec"
  },
  {
    "cases":2207.2300451405,
    "deaths":15.4501349272,
    "recovered":690.9775728218,
    "active":1500.8023373915,
    "serious":31.1379642379,
    "tests":46682.4638353938,
    "cca3":"KWT",
    "country":"Kuwait",
    "cca2":"KW",
    "population":4.207083,
    "flag":"\ud83c\uddf0\ud83c\uddfc"
  },
  {
    "cases":2028.9941760614,
    "deaths":58.6373665087,
    "recovered":1103.7483406685,
    "active":866.6084688842,
    "serious":20.4877545633,
    "tests":10282.2623850243,
    "cca3":"PAN",
    "country":"Panama",
    "cca2":"PA",
    "population":4.246439,
    "flag":"\ud83c\uddf5\ud83c\udde6"
  },
  {
    "cases":764.8835381552,
    "deaths":26.3817463013,
    "recovered":440.7248468993,
    "active":297.7769449545,
    "serious":3.7420916739,
    "tests":28665.2641930755,
    "cca3":"CZE",
    "country":"Czech Republic",
    "cca2":"CZ",
    "population":10.689209,
    "flag":"\ud83c\udde8\ud83c\uddff"
  },
  {
    "cases":1511.8453604548,
    "deaths":41.6445352609,
    "recovered":5.949219323,
    "active":1464.2516058709,
    "serious":4.0900882846,
    "tests":37694.0677173608,
    "cca3":"NOR",
    "country":"Norway",
    "cca2":"NO",
    "population":5.378857,
    "flag":"\ud83c\uddf3\ud83c\uddf4"
  },
  {
    "cases":275.6793006983,
    "deaths":3.8487179286,
    "recovered":245.1672998006,
    "active":26.6632829691,
    "serious":0.6348400707,
    "tests":33928.9879006625,
    "cca3":"AUS",
    "country":"Australia",
    "cca2":"AU",
    "population":25.203198,
    "flag":"\ud83c\udde6\ud83c\uddfa"
  },
  {
    "cases":210.5179012674,
    "deaths":3.4116044065,
    "recovered":160.0324158757,
    "active":47.0738809851,
    "serious":0.6259824599,
    "tests":8504.628999445,
    "cca3":"MYS",
    "country":"Malaysia",
    "cca2":"MY",
    "population":31.949777,
    "flag":"\ud83c\uddf2\ud83c\uddfe"
  },
  {
    "cases":172.2153921297,
    "deaths":5.154671823,
    "recovered":77.073311141,
    "active":89.9874091657,
    "serious":0.0274184671,
    "tests":1891.3258635741,
    "cca3":"MAR",
    "country":"Morocco",
    "cca2":"MA",
    "population":36.471769,
    "flag":"\ud83c\uddf2\ud83c\udde6"
  },
  {
    "cases":140.1943967931,
    "deaths":7.0119529457,
    "recovered":41.0221578383,
    "active":92.1602860091,
    "serious":3.3049969298,
    "tests":1901.6684361427,
    "cca3":"ARG",
    "country":"Argentina",
    "cca2":"AR",
    "population":44.780677,
    "flag":"\ud83c\udde6\ud83c\uddf7"
  },
  {
    "cases":1081.6759324936,
    "deaths":48.9863264883,
    "recovered":723.0454094208,
    "active":309.6441965845,
    "serious":7.9534995036,
    "tests":22287.8747453976,
    "cca3":"FIN",
    "country":"Finland",
    "cca2":"FI",
    "population":5.532156,
    "flag":"\ud83c\uddeb\ud83c\uddee"
  },
  {
    "cases":136.831175786,
    "deaths":11.7761680739,
    "recovered":65.9883500947,
    "active":59.0666576174,
    "serious":0.5109974312,
    "tests":150.9765137683,
    "cca3":"DZA",
    "country":"Algeria",
    "cca2":"DZ",
    "population":43.053054,
    "flag":"\ud83c\udde9\ud83c\uddff"
  },
  {
    "cases":3190.4029559364,
    "deaths":4.8745652497,
    "recovered":1311.2580521725,
    "active":1874.2703385142,
    "serious":3.6559239373,
    "tests":116246.1947925019,
    "cca3":"BHR",
    "country":"Bahrain",
    "cca2":"BH",
    "population":1.641172,
    "flag":"\ud83c\udde7\ud83c\udded"
  },
  {
    "cases":280.6792167524,
    "deaths":1.724934691,
    "recovered":111.7973296609,
    "active":167.1569524005,
    "serious":1.7788389001,
    "tests":22031.3510114343,
    "cca3":"KAZ",
    "country":"Kazakhstan",
    "cca2":"KZ",
    "population":18.551427,
    "flag":"\ud83c\uddf0\ud83c\uddff"
  },
  {
    "cases":1235.38834847,
    "deaths":43.2818740705,
    "recovered":489.7034894836,
    "active":702.4029849159,
    "serious":62.0785736669,
    "tests":5057.0541663998,
    "cca3":"MDA",
    "country":"Moldova",
    "cca2":"MD",
    "population":4.043263,
    "flag":"\ud83c\uddf2\ud83c\udde9"
  },
  {
    "cases":154.5145062163,
    "deaths":0.7232593908,
    "recovered":16.2404608661,
    "active":137.5507859594,
    "serious":0.1643771343,
    "tests":5276.5388855809,
    "cca3":"GHA",
    "country":"Ghana",
    "cca2":"GH",
    "population":30.417856,
    "flag":"\ud83c\uddec\ud83c\udded"
  },
  {
    "cases":123.2067270084,
    "deaths":3.2070024952,
    "recovered":14.6680933797,
    "active":105.3316311335,
    "serious":0.1840083399,
    "tests":409.0242526672,
    "cca3":"AFG",
    "country":"Afghanistan",
    "cca2":"AF",
    "population":38.041754,
    "flag":"\ud83c\udde6\ud83c\uddeb"
  },
  {
    "cases":23.0937345026,
    "deaths":0.7464038301,
    "recovered":4.4883750315,
    "active":17.858955641,
    "serious":0.0199041021,
    "tests":134.7408194058,
    "cca3":"NGA",
    "country":"Nigeria",
    "cca2":"NG",
    "population":200.963599,
    "flag":"\ud83c\uddf3\ud83c\uddec"
  },
  {
    "cases":6314.4662668154,
    "deaths":164.0332029188,
    "recovered":5849.9762070651,
    "active":300.4568568315,
    "serious":29.2336401241,
    "tests":89999.009304418,
    "cca3":"LUX",
    "country":"Luxembourg",
    "cca2":"LU",
    "population":0.615729,
    "flag":"\ud83c\uddf1\ud83c\uddfa"
  },
  {
    "cases":718.1929758194,
    "deaths":3.4170950431,
    "recovered":251.2569884619,
    "active":463.5188923145,
    "serious":5.4271509508,
    "tests":10050.2795384751,
    "cca3":"OMN",
    "country":"Oman",
    "cca2":"OM",
    "population":4.974986,
    "flag":"\ud83c\uddf4\ud83c\uddf2"
  },
  {
    "cases":1146.8250493368,
    "deaths":15.5524623436,
    "recovered":459.4738331512,
    "active":671.798753842,
    "serious":3.3809700747,
    "tests":11008.7766602169,
    "cca3":"ARM",
    "country":"Armenia",
    "cca2":"AM",
    "population":2.957731,
    "flag":"\ud83c\udde6\ud83c\uddf2"
  },
  {
    "cases":339.0922920625,
    "deaths":43.4707231907,
    "recovered":98.9191278307,
    "active":196.7024410412,
    "serious":4.3367467316,
    "tests":11581.6951702787,
    "cca3":"HUN",
    "country":"Hungary",
    "cca2":"HU",
    "population":9.684679,
    "flag":"\ud83c\udded\ud83c\uddfa"
  },
  {
    "cases":43.303049158,
    "deaths":0.8043020739,
    "recovered":40.1576535475,
    "active":2.3410935366,
    "serious":0.8761147591,
    "tests":3272.6476886039,
    "cca3":"THA",
    "country":"Thailand",
    "cca2":"TH",
    "population":69.625582,
    "flag":"\ud83c\uddf9\ud83c\udded"
  },
  {
    "cases":245.8938079231,
    "deaths":10.5966247145,
    "recovered":25.9704163084,
    "active":209.3267669003,
    "serious":0.2605727389,
    "tests":664.5473417238,
    "cca3":"BOL",
    "country":"Bolivia",
    "cca2":"BO",
    "population":11.5131,
    "flag":"\ud83c\udde7\ud83c\uddf4"
  },
  {
    "cases":71.6869894703,
    "deaths":2.7982856074,
    "recovered":45.5357385209,
    "active":23.352965342,
    "serious":null,
    "tests":3299.4585597178,
    "cca3":"IRQ",
    "country":"Iraq",
    "cca2":"IQ",
    "population":39.309783,
    "flag":"\ud83c\uddee\ud83c\uddf6"
  },
  {
    "cases":260.2770527968,
    "deaths":14.4174009436,
    "recovered":131.1888006393,
    "active":114.6708512139,
    "serious":3.0553432463,
    "tests":9487.1272182866,
    "cca3":"GRC",
    "country":"Greece",
    "cca2":"GR",
    "population":10.473455,
    "flag":"\ud83c\uddec\ud83c\uddf7"
  },
  {
    "cases":103.9171630653,
    "deaths":4.8306602392,
    "recovered":58.8954096361,
    "active":40.19109319,
    "serious":1.0820678936,
    "tests":null,
    "cca3":"CMR",
    "country":"Cameroon",
    "cca2":"CM",
    "population":25.87638,
    "flag":"\ud83c\udde8\ud83c\uddf2"
  },
  {
    "cases":257.6704481555,
    "deaths":3.1848027582,
    "recovered":167.2021448054,
    "active":87.2835005919,
    "serious":3.2843278444,
    "tests":19249.2464458099,
    "cca3":"AZE",
    "country":"Azerbaijan",
    "cca2":"AZ",
    "population":10.047718,
    "flag":"\ud83c\udde6\ud83c\uddff"
  },
  {
    "cases":75.3750957045,
    "deaths":0.3031982933,
    "recovered":60.2758207002,
    "active":14.7960767111,
    "serious":0.2425586346,
    "tests":9853.9445309638,
    "cca3":"UZB",
    "country":"Uzbekistan",
    "cca2":"UZ",
    "population":32.981716,
    "flag":"\ud83c\uddfa\ud83c\uddff"
  },
  {
    "cases":531.6799925623,
    "deaths":22.0322765588,
    "recovered":431.9294657246,
    "active":77.7182502789,
    "serious":3.1474680798,
    "tests":10867.4809408702,
    "cca3":"HRV",
    "country":"Croatia",
    "cca2":"HR",
    "population":4.130304,
    "flag":"\ud83c\udded\ud83c\uddf7"
  },
  {
    "cases":168.0337220033,
    "deaths":0.8613098518,
    "recovered":55.9068394736,
    "active":111.2655726779,
    "serious":null,
    "tests":null,
    "cca3":"GIN",
    "country":"Guinea",
    "cca2":"GN",
    "population":12.771246,
    "flag":"\ud83c\uddec\ud83c\uddf3"
  },
  {
    "cases":648.5913359588,
    "deaths":34.2320508937,
    "recovered":337.4734928809,
    "active":276.8857921842,
    "serious":1.2117540139,
    "tests":12819.7515904271,
    "cca3":"BIH",
    "country":"Bosnia and Herzegovina",
    "cca2":"BA",
    "population":3.301,
    "flag":"\ud83c\udde7\ud83c\udde6"
  },
  {
    "cases":284.2808815107,
    "deaths":13.2854884324,
    "recovered":65.8560233047,
    "active":205.1393697736,
    "serious":7.1427357163,
    "tests":8233.2886055223,
    "cca3":"BGR",
    "country":"Bulgaria",
    "cca2":"BG",
    "population":7.000119,
    "flag":"\ud83c\udde7\ud83c\uddec"
  },
  {
    "cases":202.3369922606,
    "deaths":11.0813362901,
    "recovered":20.8288080268,
    "active":170.4268479436,
    "serious":1.0260496565,
    "tests":580.025870816,
    "cca3":"HND",
    "country":"Honduras",
    "cca2":"HN",
    "population":9.746117,
    "flag":"\ud83c\udded\ud83c\uddf3"
  },
  {
    "cases":115.7313373707,
    "deaths":1.1659042471,
    "recovered":43.8748177201,
    "active":70.6906154035,
    "serious":0.3681802886,
    "tests":1164.0019822827,
    "cca3":"SEN",
    "country":"Senegal",
    "cca2":"SN",
    "population":16.296364,
    "flag":"\ud83c\uddf8\ud83c\uddf3"
  },
  {
    "cases":5312.1985895095,
    "deaths":29.4958278152,
    "recovered":5229.6102716271,
    "active":53.0924900673,
    "serious":null,
    "tests":159852.6388442355,
    "cca3":"ISL",
    "country":"Iceland",
    "cca2":"IS",
    "population":0.339031,
    "flag":"\ud83c\uddee\ud83c\uddf8"
  },
  {
    "cases":157.3214518432,
    "deaths":6.7940279259,
    "recovered":108.4397444281,
    "active":42.0876794892,
    "serious":0.6176389024,
    "tests":6104.2135061216,
    "cca3":"CUB",
    "country":"Cuba",
    "cca2":"CU",
    "population":11.333483,
    "flag":"\ud83c\udde8\ud83c\uddfa"
  },
  {
    "cases":1313.3199763436,
    "deaths":46.0152317961,
    "recovered":566.5153947353,
    "active":700.7893498123,
    "serious":3.7717403112,
    "tests":48251.1194525244,
    "cca3":"EST",
    "country":"Estonia",
    "cca2":"EE",
    "population":1.325648,
    "flag":"\ud83c\uddea\ud83c\uddea"
  },
  {
    "cases":67.2718698127,
    "deaths":0.8165949515,
    "recovered":31.808317634,
    "active":34.6469572272,
    "serious":null,
    "tests":531.2922296246,
    "cca3":"CIV",
    "country":"Ivory Coast",
    "cca2":"CI",
    "population":25.716544,
    "flag":"\ud83c\udde8\ud83c\uddee"
  },
  {
    "cases":798.6718241156,
    "deaths":43.6773653813,
    "recovered":575.9652577757,
    "active":179.0292009586,
    "serious":10.0793920111,
    "tests":9235.1229373844,
    "cca3":"MKD",
    "country":"Macedonia",
    "cca2":"MK",
    "population":2.083459,
    "flag":"\ud83c\uddf2\ud83c\uddf0"
  },
  {
    "cases":35.6431812048,
    "deaths":1.7284373586,
    "recovered":3.7838763795,
    "active":30.1308674667,
    "serious":null,
    "tests":null,
    "cca3":"SDN",
    "country":"Sudan",
    "cca2":"SD",
    "population":42.813238,
    "flag":"\ud83c\uddf8\ud83c\udde9"
  },
  {
    "cases":312.9793607151,
    "deaths":4.3904920341,
    "recovered":292.2813268401,
    "active":16.3075418409,
    "serious":0.4181420985,
    "tests":41204.5586687861,
    "cca3":"NZL",
    "country":"New Zealand",
    "cca2":"NZ",
    "population":4.783063,
    "flag":"\ud83c\uddf3\ud83c\uddff"
  },
  {
    "cases":538.116201936,
    "deaths":18.1183906376,
    "recovered":301.852388022,
    "active":218.1454232764,
    "serious":6.1602528168,
    "tests":67605.1509859847,
    "cca3":"LTU",
    "country":"Lithuania",
    "cca2":"LT",
    "population":2.759627,
    "flag":"\ud83c\uddf1\ud83c\uddf9"
  },
  {
    "cases":702.3775962714,
    "deaths":49.0702156299,
    "recovered":123.1566196202,
    "active":530.1507610213,
    "serious":4.8108054539,
    "tests":30483.6687587256,
    "cca3":"SVN",
    "country":"Slovenia",
    "cca2":"SI",
    "population":2.078654,
    "flag":"\ud83c\uddf8\ud83c\uddee"
  },
  {
    "cases":266.9958821795,
    "deaths":4.7645112812,
    "recovered":175.7371661017,
    "active":86.4942047967,
    "serious":0.9162521695,
    "tests":22108.2485968056,
    "cca3":"SVK",
    "country":"Slovakia",
    "cca2":"SK",
    "population":5.457013,
    "flag":"\ud83c\uddf8\ud83c\uddf0"
  },
  {
    "cases":1260.3229384938,
    "deaths":3.0814741772,
    "recovered":895.6818275196,
    "active":361.5596367969,
    "serious":null,
    "tests":16218.8257529069,
    "cca3":"DJI",
    "country":"Djibouti",
    "cca2":"DJ",
    "population":0.97356,
    "flag":"\ud83c\udde9\ud83c\uddef"
  },
  {
    "cases":63.3621576168,
    "deaths":1.4788295315,
    "recovered":6.3134645381,
    "active":55.5698635473,
    "serious":0.2843902945,
    "tests":409.5220240945,
    "cca3":"GTM",
    "country":"Guatemala",
    "cca2":"GT",
    "population":17.581472,
    "flag":"\ud83c\uddec\ud83c\uddf9"
  },
  {
    "cases":70.5178203194,
    "deaths":3.3672421089,
    "recovered":7.8353133688,
    "active":59.3152648417,
    "serious":0.1295093119,
    "tests":null,
    "cca3":"SOM",
    "country":"Somalia",
    "cca2":"SO",
    "population":15.442905,
    "flag":"\ud83c\uddf8\ud83c\uddf4"
  },
  {
    "cases":140.9330683576,
    "deaths":0.5379124746,
    "recovered":132.460946882,
    "active":7.9342090011,
    "serious":0.1344781187,
    "tests":22631.4570677261,
    "cca3":"HKG",
    "country":"Hong Kong",
    "cca2":"HK",
    "population":7.436154,
    "flag":"\ud83c\udded\ud83c\uddf0"
  },
  {
    "cases":88.2449591136,
    "deaths":3.847890659,
    "recovered":62.1648113136,
    "active":22.232257141,
    "serious":0.5985607692,
    "tests":2844.5317925125,
    "cca3":"TUN",
    "country":"Tunisia",
    "cca2":"TN",
    "population":11.694719,
    "flag":"\ud83c\uddf9\ud83c\uddf3"
  },
  {
    "cases":11.7985172283,
    "deaths":0.4724015687,
    "recovered":1.6246005168,
    "active":9.7015151428,
    "serious":null,
    "tests":null,
    "cca3":"COD",
    "country":"DR Congo",
    "cca2":"CD",
    "population":86.790567,
    "flag":"\ud83c\udde8\ud83c\udde9"
  },
  {
    "cases":3843.6971632538,
    "deaths":41.3300770242,
    "recovered":1848.5816269021,
    "active":1953.7854593274,
    "serious":33.8155175653,
    "tests":15029.1189179034,
    "cca3":"MYT",
    "country":"Mayotte",
    "cca2":"YT",
    "population":0.26615,
    "flag":"\ud83c\uddfe\ud83c\uddf9"
  },
  {
    "cases":158.3578169689,
    "deaths":1.870367917,
    "recovered":107.2344272388,
    "active":49.2530218132,
    "serious":2.02623191,
    "tests":9272.3489483077,
    "cca3":"KGZ",
    "country":"Kyrgyzstan",
    "cca2":"KG",
    "population":6.41585,
    "flag":"\ud83c\uddf0\ud83c\uddec"
  },
  {
    "cases":148.4453602535,
    "deaths":2.7891612574,
    "recovered":50.3598560359,
    "active":95.2963429602,
    "serious":0.6198136127,
    "tests":6669.6593333936,
    "cca3":"SLV",
    "country":"El Salvador",
    "cca2":"SV",
    "population":6.453553,
    "flag":"\ud83c\uddf8\ud83c\uddfb"
  },
  {
    "cases":496.1339834472,
    "deaths":9.4401815032,
    "recovered":243.346900972,
    "active":243.346900972,
    "serious":1.0489090559,
    "tests":40460.093468286,
    "cca3":"LVA",
    "country":"Latvia",
    "cca2":"LV",
    "population":1.906743,
    "flag":"\ud83c\uddf1\ud83c\uddfb"
  },
  {
    "cases":751.7260079678,
    "deaths":13.3491854911,
    "recovered":334.5639613708,
    "active":403.8128611059,
    "serious":8.3432409319,
    "tests":63524.6021316981,
    "cca3":"CYP",
    "country":"Cyprus",
    "cca2":"CY",
    "population":1.198575,
    "flag":"\ud83c\udde8\ud83c\uddfe"
  },
  {
    "cases":1689.4150706371,
    "deaths":5.6502176275,
    "recovered":54.6187703996,
    "active":1629.1460826099,
    "serious":3.7668117517,
    "tests":22177.1041881296,
    "cca3":"MDV",
    "country":"Maldives",
    "cca2":"MV",
    "population":0.530953,
    "flag":"\ud83c\uddf2\ud83c\uddfb"
  },
  {
    "cases":302.6814031782,
    "deaths":10.7604627277,
    "recovered":227.0110523837,
    "active":64.9098880669,
    "serious":2.4297819062,
    "tests":3665.1524497235,
    "cca3":"ALB",
    "country":"Albania",
    "cca2":"AL",
    "population":2.880917,
    "flag":"\ud83c\udde6\ud83c\uddf1"
  },
  {
    "cases":40.4713377343,
    "deaths":0.4220649358,
    "recovered":16.085363665,
    "active":23.9639091335,
    "serious":0.046896104,
    "tests":1716.6318861712,
    "cca3":"LKA",
    "country":"Sri Lanka",
    "cca2":"LK",
    "population":21.323733,
    "flag":"\ud83c\uddf1\ud83c\uddf0"
  },
  {
    "cases":125.2969603599,
    "deaths":3.7924574731,
    "recovered":34.1321172575,
    "active":87.3723856293,
    "serious":0.4375912469,
    "tests":7545.6775976474,
    "cca3":"LBN",
    "country":"Lebanon",
    "cca2":"LB",
    "population":6.855713,
    "flag":"\ud83c\uddf1\ud83c\udde7"
  },
  {
    "cases":35.6917409011,
    "deaths":1.9733414441,
    "recovered":27.3264891274,
    "active":6.3919103296,
    "serious":null,
    "tests":240.1470739958,
    "cca3":"NER",
    "country":"Niger",
    "cca2":"NE",
    "population":23.310715,
    "flag":"\ud83c\uddf3\ud83c\uddea"
  },
  {
    "cases":369.1465304599,
    "deaths":4.1425421124,
    "recovered":58.4558720304,
    "active":306.5481163171,
    "serious":0.4602824569,
    "tests":2456.5274726489,
    "cca3":"GAB",
    "country":"Gabon",
    "cca2":"GA",
    "population":2.172579,
    "flag":"\ud83c\uddec\ud83c\udde6"
  },
  {
    "cases":158.6905041861,
    "deaths":1.3868084011,
    "recovered":102.4257061975,
    "active":54.8779895874,
    "serious":1.1886929153,
    "tests":3427.1997901561,
    "cca3":"CRI",
    "country":"Costa Rica",
    "cca2":"CR",
    "population":5.047561,
    "flag":"\ud83c\udde8\ud83c\uddf7"
  },
  {
    "cases":396.1639254483,
    "deaths":1.5617500346,
    "recovered":13.5351669667,
    "active":381.067008447,
    "serious":null,
    "tests":780.8750173094,
    "cca3":"GNB",
    "country":"Guinea-Bissau",
    "cca2":"GW",
    "population":1.920922,
    "flag":"\ud83c\uddec\ud83c\uddfc"
  },
  {
    "cases":37.3990385888,
    "deaths":2.4604630651,
    "recovered":28.7382085998,
    "active":6.2003669239,
    "serious":null,
    "tests":null,
    "cca3":"BFA",
    "country":"Burkina Faso",
    "cca2":"BF",
    "population":20.321378,
    "flag":"\ud83c\udde7\ud83c\uddeb"
  },
  {
    "cases":9787.1457831013,
    "deaths":622.2291358793,
    "recovered":7129.7088486168,
    "active":2035.2077986052,
    "serious":181.4834979648,
    "tests":21687.2780067927,
    "cca3":"AND",
    "country":"Andorra",
    "cca2":"AD",
    "population":0.077142,
    "flag":"\ud83c\udde6\ud83c\udde9"
  },
  {
    "cases":102.7732305828,
    "deaths":1.4195197594,
    "recovered":24.1318359103,
    "active":77.2218749131,
    "serious":null,
    "tests":2293.234171361,
    "cca3":"PRY",
    "country":"Paraguay",
    "cca2":"PY",
    "population":7.044636,
    "flag":"\ud83c\uddf5\ud83c\uddfe"
  },
  {
    "cases":36.2192937838,
    "deaths":1.983921991,
    "recovered":19.1779125793,
    "active":15.0574592135,
    "serious":null,
    "tests":110.4891939584,
    "cca3":"MLI",
    "country":"Mali",
    "cca2":"ML",
    "population":19.658031,
    "flag":"\ud83c\uddf2\ud83c\uddf1"
  },
  {
    "cases":205.3883978376,
    "deaths":5.4885788452,
    "recovered":151.0803545275,
    "active":48.8194644649,
    "serious":2.3109805664,
    "tests":8289.7761641998,
    "cca3":"URY",
    "country":"Uruguay",
    "cca2":"UY",
    "population":3.461734,
    "flag":"\ud83c\uddfa\ud83c\uddfe"
  },
  {
    "cases":13.3145729732,
    "deaths":0.6276870116,
    "recovered":4.7742254518,
    "active":7.9126605098,
    "serious":0.0190208185,
    "tests":626.5077208451,
    "cca3":"KEN",
    "country":"Kenya",
    "cca2":"KE",
    "population":52.573973,
    "flag":"\ud83c\uddf0\ud83c\uddea"
  },
  {
    "cases":70.9150009151,
    "deaths":2.2529727976,
    "recovered":null,
    "active":68.6620281175,
    "serious":null,
    "tests":null,
    "cca3":"TJK",
    "country":"Tajikistan",
    "cca2":"TJ",
    "population":9.321018,
    "flag":"\ud83c\uddf9\ud83c\uddef"
  },
  {
    "cases":159.6291000347,
    "deaths":2.7522258627,
    "recovered":79.314145315,
    "active":77.562728857,
    "serious":1.5012141069,
    "tests":7440.0171138408,
    "cca3":"GEO",
    "country":"Georgia",
    "cca2":"GE",
    "population":3.996765,
    "flag":"\ud83c\uddec\ud83c\uddea"
  },
  {
    "cases":18546.9580626107,
    "deaths":1210.8682811577,
    "recovered":3839.3384524513,
    "active":13496.7513290018,
    "serious":59.0667454223,
    "tests":88157.1175428234,
    "cca3":"SMR",
    "country":"San Marino",
    "cca2":"SM",
    "population":0.03386,
    "flag":"\ud83c\uddf8\ud83c\uddf2"
  },
  {
    "cases":55.6342332286,
    "deaths":0.890939678,
    "recovered":38.6073860483,
    "active":16.1359075022,
    "serious":0.4949664878,
    "tests":11805.9406669812,
    "cca3":"JOR",
    "country":"Jordan",
    "cca2":"JO",
    "population":10.101694,
    "flag":"\ud83c\uddef\ud83c\uddf4"
  },
  {
    "cases":8.7750355514,
    "deaths":0.3620348656,
    "recovered":3.1548752572,
    "active":5.2581254286,
    "serious":0.1206782885,
    "tests":null,
    "cca3":"TZA",
    "country":"Tanzania",
    "cca2":"TZ",
    "population":58.005463,
    "flag":"\ud83c\uddf9\ud83c\uddff"
  },
  {
    "cases":171.2863674028,
    "deaths":3.05262833,
    "recovered":30.5262832995,
    "active":137.7074557734,
    "serious":null,
    "tests":2466.184509675,
    "cca3":"JAM",
    "country":"Jamaica",
    "cca2":"JM",
    "population":2.948279,
    "flag":"\ud83c\uddef\ud83c\uddf2"
  },
  {
    "cases":1142.2161263659,
    "deaths":11.3540370414,
    "recovered":985.5304151944,
    "active":145.3316741301,
    "serious":null,
    "tests":98546.2290972178,
    "cca3":"MLT",
    "country":"Malta",
    "cca2":"MT",
    "population":0.440372,
    "flag":"\ud83c\uddf2\ud83c\uddf9"
  },
  {
    "cases":18.5077098913,
    "deaths":0.2944408392,
    "recovered":15.4791755455,
    "active":2.7340935067,
    "serious":null,
    "tests":2835.0446515326,
    "cca3":"TWN",
    "country":"Taiwan",
    "cca2":"TW",
    "population":23.773876,
    "flag":"\ud83c\uddf9\ud83c\uddfc"
  },
  {
    "cases":323.7496552324,
    "deaths":2.9498829634,
    "recovered":9.587119631,
    "active":311.212652638,
    "serious":null,
    "tests":629.8000126845,
    "cca3":"GNQ",
    "country":"Equatorial Guinea",
    "cca2":"GQ",
    "population":1.355986,
    "flag":"\ud83c\uddec\ud83c\uddf6"
  },
  {
    "cases":490.4789707141,
    "deaths":null,
    "recovered":398.2329257633,
    "active":92.2460449508,
    "serious":5.6247588385,
    "tests":19349.1704043189,
    "cca3":"REU",
    "country":"Reunion",
    "cca2":"RE",
    "population":0.888927,
    "flag":"\ud83c\uddf7\ud83c\uddea"
  },
  {
    "cases":14.7987982394,
    "deaths":0.3506824227,
    "recovered":7.1889896661,
    "active":7.2591261506,
    "serious":0.0701364845,
    "tests":18246.6026149897,
    "cca3":"VEN",
    "country":"Venezuela",
    "cca2":"VE",
    "population":28.515829,
    "flag":"\ud83c\uddfb\ud83c\uddea"
  },
  {
    "cases":75.279739512,
    "deaths":0.4014919441,
    "recovered":60.4245375817,
    "active":14.4537099863,
    "serious":null,
    "tests":6927.9442407988,
    "cca3":"PSE",
    "country":"Palestine",
    "cca2":"PS",
    "population":4.98142,
    "flag":"\ud83c\uddf5\ud83c\uddf8"
  },
  {
    "cases":43.2600408411,
    "deaths":2.4317774437,
    "recovered":9.2151566289,
    "active":31.6131067685,
    "serious":null,
    "tests":null,
    "cca3":"SLE",
    "country":"Sierra Leone",
    "cca2":"SL",
    "population":7.813215,
    "flag":"\ud83c\uddf8\ud83c\uddf1"
  },
  {
    "cases":61.8900668859,
    "deaths":2.0444166239,
    "recovered":9.8503710059,
    "active":49.9952792562,
    "serious":null,
    "tests":null,
    "cca3":"COG",
    "country":"Republic of the Congo",
    "cca2":"CG",
    "population":5.380508,
    "flag":"\ud83c\udde8\ud83c\uddec"
  },
  {
    "cases":261.485679721,
    "deaths":7.8760746904,
    "recovered":253.6096050306,
    "active":0.0,
    "serious":null,
    "tests":54953.7359372686,
    "cca3":"MUS",
    "country":"Mauritius",
    "cca2":"MU",
    "population":1.269668,
    "flag":"\ud83c\uddf2\ud83c\uddfa"
  },
  {
    "cases":3901.4470821905,
    "deaths":271.9190390618,
    "recovered":3203.9156341625,
    "active":425.6124089662,
    "serious":248.2739052303,
    "tests":44606.5449730445,
    "cca3":"IMN",
    "country":"Isle of Man",
    "cca2":"IM",
    "population":0.084584,
    "flag":"\ud83c\uddee\ud83c\uddf2"
  },
  {
    "cases":515.9342470465,
    "deaths":14.3315068624,
    "recovered":468.1625575052,
    "active":33.4401826789,
    "serious":3.1847793028,
    "tests":12446.1175151715,
    "cca3":"MNE",
    "country":"Montenegro",
    "cca2":"ME",
    "population":0.627987,
    "flag":"\ud83c\uddf2\ud83c\uddea"
  },
  {
    "cases":20.1920426295,
    "deaths":1.9439544146,
    "recovered":3.323534967,
    "active":14.9245532479,
    "serious":null,
    "tests":null,
    "cca3":"TCD",
    "country":"Chad",
    "cca2":"TD",
    "population":15.946876,
    "flag":"\ud83c\uddf9\ud83c\udde9"
  },
  {
    "cases":27.0312616117,
    "deaths":0.1694749944,
    "recovered":5.2537248273,
    "active":21.6080617899,
    "serious":null,
    "tests":1932.6928364869,
    "cca3":"BEN",
    "country":"Benin",
    "cca2":"BJ",
    "population":11.801151,
    "flag":"\ud83c\udde7\ud83c\uddef"
  },
  {
    "cases":2.9856283669,
    "deaths":null,
    "recovered":2.5813245255,
    "active":0.4043038413,
    "serious":0.0207335303,
    "tests":2705.7671745214,
    "cca3":"VNM",
    "country":"Vietnam",
    "cca2":"VN",
    "population":96.462106,
    "flag":"\ud83c\uddfb\ud83c\uddf3"
  },
  {
    "cases":22.5707712472,
    "deaths":null,
    "recovered":11.879353288,
    "active":10.6914179592,
    "serious":null,
    "tests":3389.9714499543,
    "cca3":"RWA",
    "country":"Rwanda",
    "cca2":"RW",
    "population":12.62695,
    "flag":"\ud83c\uddf7\ud83c\uddfc"
  },
  {
    "cases":14.948745957,
    "deaths":0.391914688,
    "recovered":6.550574071,
    "active":8.0062571979,
    "serious":0.0559878126,
    "tests":574.9948351243,
    "cca3":"ZMB",
    "country":"Zambia",
    "cca2":"ZM",
    "population":17.86103,
    "flag":"\ud83c\uddff\ud83c\uddf2"
  },
  {
    "cases":472.7831470992,
    "deaths":3.6367934392,
    "recovered":105.4670097375,
    "active":363.6793439225,
    "serious":null,
    "tests":1438.3518052133,
    "cca3":"CPV",
    "country":"Cape Verde",
    "cca2":"CV",
    "population":0.549935,
    "flag":"\ud83c\udde8\ud83c\uddfb"
  },
  {
    "cases":2.2305748825,
    "deaths":0.0446114976,
    "recovered":0.9368414506,
    "active":1.2491219342,
    "serious":0.0089222995,
    "tests":326.7702979861,
    "cca3":"ETH",
    "country":"Ethiopia",
    "cca2":"ET",
    "population":112.07873,
    "flag":"\ud83c\uddea\ud83c\uddf9"
  },
  {
    "cases":42.7352677759,
    "deaths":4.0507362821,
    "recovered":17.2156291988,
    "active":21.468902295,
    "serious":null,
    "tests":null,
    "cca3":"LBR",
    "country":"Liberia",
    "cca2":"LR",
    "population":4.937374,
    "flag":"\ud83c\uddf1\ud83c\uddf7"
  },
  {
    "cases":18.5562080416,
    "deaths":1.4205709505,
    "recovered":1.509356635,
    "active":15.626280456,
    "serious":null,
    "tests":115.0662469945,
    "cca3":"HTI",
    "country":"Haiti",
    "cca2":"HT",
    "population":11.263077,
    "flag":"\ud83c\udded\ud83c\uddf9"
  },
  {
    "cases":967.1899412246,
    "deaths":23.2497582025,
    "recovered":18.599806562,
    "active":925.3403764601,
    "serious":null,
    "tests":813.741537088,
    "cca3":"STP",
    "country":"Sao Tome and Principe",
    "cca2":"ST",
    "population":0.215056,
    "flag":"\ud83c\uddf8\ud83c\uddf9"
  },
  {
    "cases":497.9310565192,
    "deaths":37.2782609159,
    "recovered":221.0068325727,
    "active":239.6459630306,
    "serious":10.6509316902,
    "tests":null,
    "cca3":"MTQ",
    "country":"Martinique",
    "cca2":"MQ",
    "population":0.375554,
    "flag":"\ud83c\uddf2\ud83c\uddf6"
  },
  {
    "cases":3841.5711409672,
    "deaths":null,
    "recovered":3841.5711409672,
    "active":0.0,
    "serious":null,
    "tests":173589.7119848802,
    "cca3":"FRO",
    "country":"Faroe Islands",
    "cca2":"FO",
    "population":0.048678,
    "flag":"\ud83c\uddeb\ud83c\uddf4"
  },
  {
    "cases":6.8967289371,
    "deaths":null,
    "recovered":3.7449979712,
    "active":3.1517309659,
    "serious":0.0370791878,
    "tests":147.1302173245,
    "cca3":"MDG",
    "country":"Madagascar",
    "cca2":"MG",
    "population":26.969307,
    "flag":"\ud83c\uddf2\ud83c\uddec"
  },
  {
    "cases":22.3944325214,
    "deaths":1.3609876118,
    "recovered":11.0116270409,
    "active":10.0218178687,
    "serious":null,
    "tests":1306.6718334705,
    "cca3":"TGO",
    "country":"Togo",
    "cca2":"TG",
    "population":8.082366,
    "flag":"\ud83c\uddf9\ud83c\uddec"
  },
  {
    "cases":3.3305319859,
    "deaths":0.1110177329,
    "recovered":1.3692187053,
    "active":1.8502955477,
    "serious":null,
    "tests":212.4509347878,
    "cca3":"MMR",
    "country":"Myanmar",
    "cca2":"MM",
    "population":54.04542,
    "flag":"\ud83c\uddf2\ud83c\uddf2"
  },
  {
    "cases":152.4217640859,
    "deaths":1.7419630181,
    "recovered":24.3874822538,
    "active":126.2923188141,
    "serious":null,
    "tests":621.8807974707,
    "cca3":"SWZ",
    "country":"Swaziland",
    "cca2":"SZ",
    "population":1.14813,
    "flag":"\ud83c\uddf8\ud83c\uddff"
  },
  {
    "cases":14.1021882528,
    "deaths":null,
    "recovered":0.1807972853,
    "active":13.9213909675,
    "serious":null,
    "tests":112.7271073799,
    "cca3":"SSD",
    "country":"South Sudan",
    "cca2":"SS",
    "population":11.062113,
    "flag":"\ud83c\uddf8\ud83c\uddf8"
  },
  {
    "cases":384.9461075449,
    "deaths":32.4954506369,
    "recovered":259.9636050953,
    "active":92.4870518127,
    "serious":9.998600196,
    "tests":null,
    "cca3":"GLP",
    "country":"Guadeloupe",
    "cca2":"GP",
    "population":0.400056,
    "flag":"\ud83c\uddec\ud83c\uddf5"
  },
  {
    "cases":4361.8883712649,
    "deaths":null,
    "recovered":4243.1975312305,
    "active":118.6908400344,
    "serious":null,
    "tests":123290.1100857541,
    "cca3":"GIB",
    "country":"Gibraltar",
    "cca2":"GI",
    "population":0.033701,
    "flag":"\ud83c\uddec\ud83c\uddee"
  },
  {
    "cases":495.1312097706,
    "deaths":3.438411179,
    "recovered":419.4861638334,
    "active":72.2066347582,
    "serious":null,
    "tests":null,
    "cca3":"GUF",
    "country":"French Guiana",
    "cca2":"GF",
    "population":0.290832,
    "flag":"\ud83c\uddec\ud83c\uddeb"
  },
  {
    "cases":30.135811354,
    "deaths":null,
    "recovered":2.1073993954,
    "active":28.0284119586,
    "serious":null,
    "tests":737.1683085064,
    "cca3":"CAF",
    "country":"Central African Republic",
    "cca2":"CF",
    "population":4.745185,
    "flag":"\ud83c\udde8\ud83c\uddeb"
  },
  {
    "cases":325.4209123325,
    "deaths":2.3079497329,
    "recovered":309.2652642025,
    "active":13.8476983971,
    "serious":4.6158994657,
    "tests":37012.5898657927,
    "cca3":"BRN",
    "country":"Brunei",
    "cca2":"BN",
    "population":0.433285,
    "flag":"\ud83c\udde7\ud83c\uddf3"
  },
  {
    "cases":4.6838882284,
    "deaths":null,
    "recovered":1.1534948622,
    "active":3.5303933662,
    "serious":null,
    "tests":2669.3618831468,
    "cca3":"NPL",
    "country":"Nepal",
    "cca2":"NP",
    "population":28.60871,
    "flag":"\ud83c\uddf3\ud83c\uddf5"
  },
  {
    "cases":7.3999750827,
    "deaths":null,
    "recovered":7.2786640158,
    "active":0.1213110669,
    "serious":0.0606555335,
    "tests":854.879088653,
    "cca3":"KHM",
    "country":"Cambodia",
    "cca2":"KH",
    "population":16.486542,
    "flag":"\ud83c\uddf0\ud83c\udded"
  },
  {
    "cases":2.7332529862,
    "deaths":null,
    "recovered":1.242387721,
    "active":1.4908652652,
    "serious":null,
    "tests":1323.8431777802,
    "cca3":"UGA",
    "country":"Uganda",
    "cca2":"UG",
    "population":44.269594,
    "flag":"\ud83c\uddfa\ud83c\uddec"
  },
  {
    "cases":1903.8172335456,
    "deaths":127.9877131795,
    "recovered":1055.8986337312,
    "active":719.9308866349,
    "serious":63.9938565898,
    "tests":71817.1055578664,
    "cca3":"BMU",
    "country":"Bermuda",
    "cca2":"BM",
    "population":0.062506,
    "flag":"\ud83c\udde7\ud83c\uddf2"
  },
  {
    "cases":83.1557313296,
    "deaths":5.7348780227,
    "recovered":76.703993554,
    "active":0.7168597528,
    "serious":null,
    "tests":1663.1146265913,
    "cca3":"TTO",
    "country":"Trinidad and Tobago",
    "cca2":"TT",
    "population":1.394973,
    "flag":"\ud83c\uddf9\ud83c\uddf9"
  },
  {
    "cases":139.2497885703,
    "deaths":12.7752099606,
    "recovered":45.9907558581,
    "active":80.4838227516,
    "serious":7.6651259763,
    "tests":1188.0945263335,
    "cca3":"GUY",
    "country":"Guyana",
    "cca2":"GY",
    "population":0.782766,
    "flag":"\ud83c\uddec\ud83c\uddfe"
  },
  {
    "cases":3.3919475035,
    "deaths":null,
    "recovered":1.1196719914,
    "active":2.272275512,
    "serious":null,
    "tests":137.4232711836,
    "cca3":"MOZ",
    "country":"Mozambique",
    "cca2":"MZ",
    "population":30.366036,
    "flag":"\ud83c\uddf2\ud83c\uddff"
  },
  {
    "cases":950.0159903682,
    "deaths":28.2182967436,
    "recovered":837.1428033937,
    "active":84.6548902308,
    "serious":37.6243956581,
    "tests":17627.0293658408,
    "cca3":"ABW",
    "country":"Aruba",
    "cca2":"AW",
    "population":0.106314,
    "flag":"\ud83c\udde6\ud83c\uddfc"
  },
  {
    "cases":2463.812750231,
    "deaths":102.658864593,
    "recovered":2181.5008726003,
    "active":179.6530130377,
    "serious":25.6647161482,
    "tests":null,
    "cca3":"MCO",
    "country":"Monaco",
    "cca2":"MC",
    "population":0.038964,
    "flag":"\ud83c\uddf2\ud83c\udde8"
  },
  {
    "cases":238.7786855362,
    "deaths":28.2426402247,
    "recovered":100.1329971603,
    "active":110.4030481511,
    "serious":2.5675127477,
    "tests":4195.3158297431,
    "cca3":"BHS",
    "country":"Bahamas",
    "cca2":"BS",
    "population":0.389482,
    "flag":"\ud83c\udde7\ud83c\uddf8"
  },
  {
    "cases":292.6574340214,
    "deaths":24.3881195018,
    "recovered":198.588973086,
    "active":69.6803414337,
    "serious":13.9360682867,
    "tests":10417.2110443341,
    "cca3":"BRB",
    "country":"Barbados",
    "cca2":"BB",
    "population":0.287025,
    "flag":"\ud83c\udde7\ud83c\udde7"
  },
  {
    "cases":1293.3423662007,
    "deaths":15.396932931,
    "recovered":723.6558477551,
    "active":554.2895855146,
    "serious":46.1907987929,
    "tests":64466.9581819302,
    "cca3":"CYM",
    "country":"Cayman Islands",
    "cca2":"KY",
    "population":0.064948,
    "flag":"\ud83c\uddf0\ud83c\uddfe"
  },
  {
    "cases":2156.8163286778,
    "deaths":26.3026381546,
    "recovered":1446.6450985034,
    "active":683.8685920198,
    "serious":null,
    "tests":23672.3743391462,
    "cca3":"LIE",
    "country":"Liechtenstein",
    "cca2":"LI",
    "population":0.038019,
    "flag":"\ud83c\uddf1\ud83c\uddee"
  },
  {
    "cases":1792.960271775,
    "deaths":353.8737378503,
    "recovered":1085.2127960744,
    "active":353.8737378503,
    "serious":165.1410776635,
    "tests":7761.630650184,
    "cca3":"SXM",
    "country":"Sint Maarten",
    "cca2":"SX",
    "population":0.042388,
    "flag":"\ud83c\uddf8\ud83c\uddfd"
  },
  {
    "cases":9.4430768377,
    "deaths":0.4426442268,
    "recovered":4.1313461165,
    "active":4.8690864945,
    "serious":null,
    "tests":479.9738898925,
    "cca3":"LBY",
    "country":"Libya",
    "cca2":"LY",
    "population":6.777452,
    "flag":"\ud83c\uddf1\ud83c\uddfe"
  },
  {
    "cases":214.8327705908,
    "deaths":null,
    "recovered":200.5105858848,
    "active":14.3221847061,
    "serious":3.5805461765,
    "tests":10562.6112207156,
    "cca3":"PYF",
    "country":"French Polynesia",
    "cca2":"PF",
    "population":0.279287,
    "flag":"\ud83c\uddf5\ud83c\uddeb"
  },
  {
    "cases":3.0597871129,
    "deaths":0.161041427,
    "recovered":1.288331416,
    "active":1.6104142699,
    "serious":0.0536804757,
    "tests":71.7707959639,
    "cca3":"MWI",
    "country":"Malawi",
    "cca2":"MW",
    "population":18.628747,
    "flag":"\ud83c\uddf2\ud83c\uddfc"
  },
  {
    "cases":1.9203123854,
    "deaths":0.3086216334,
    "recovered":0.0342912926,
    "active":1.5773994595,
    "serious":null,
    "tests":4.1149551117,
    "cca3":"YEM",
    "country":"Yemen",
    "cca2":"YE",
    "population":29.161922,
    "flag":"\ud83c\uddfe\ud83c\uddea"
  },
  {
    "cases":2.7533467076,
    "deaths":0.1757455345,
    "recovered":1.6988735004,
    "active":0.8787276726,
    "serious":null,
    "tests":null,
    "cca3":"SYR",
    "country":"Syria",
    "cca2":"SY",
    "population":17.070135,
    "flag":"\ud83c\uddf8\ud83c\uddfe"
  },
  {
    "cases":1.4139696113,
    "deaths":0.0628430938,
    "recovered":0.4084801099,
    "active":0.9426464075,
    "serious":null,
    "tests":94.264640752,
    "cca3":"AGO",
    "country":"Angola",
    "cca2":"AO",
    "population":31.825295,
    "flag":"\ud83c\udde6\ud83c\uddf4"
  },
  {
    "cases":70.2636448095,
    "deaths":null,
    "recovered":62.456573164,
    "active":7.8070716455,
    "serious":1.5614143291,
    "tests":null,
    "cca3":"MAC",
    "country":"Macau",
    "cca2":"MO",
    "population":0.640445,
    "flag":"\ud83c\uddf2\ud83c\uddf4"
  },
  {
    "cases":13.0225814663,
    "deaths":null,
    "recovered":4.3408604888,
    "active":8.6817209775,
    "serious":0.620122927,
    "tests":3009.7666260383,
    "cca3":"MNG",
    "country":"Mongolia",
    "cca2":"MN",
    "population":3.225167,
    "flag":"\ud83c\uddf2\ud83c\uddf3"
  },
  {
    "cases":1026.261775696,
    "deaths":78.9432135151,
    "recovered":789.4321351508,
    "active":157.8864270302,
    "serious":26.314404505,
    "tests":null,
    "cca3":"MAF",
    "country":"Saint Martin",
    "cca2":"MF",
    "population":0.038002,
    "flag":"\ud83c\uddf2\ud83c\uddeb"
  },
  {
    "cases":11.1520432402,
    "deaths":null,
    "recovered":10.8660934135,
    "active":0.2859498267,
    "serious":null,
    "tests":null,
    "cca3":"ERI",
    "country":"Eritrea",
    "cca2":"ER",
    "population":3.497117,
    "flag":"\ud83c\uddea\ud83c\uddf7"
  },
  {
    "cases":2.4580983004,
    "deaths":0.2731220334,
    "recovered":0.6145245751,
    "active":1.570451692,
    "serious":null,
    "tests":1402.2767998947,
    "cca3":"ZWE",
    "country":"Zimbabwe",
    "cca2":"ZW",
    "population":14.645468,
    "flag":"\ud83c\uddff\ud83c\uddfc"
  },
  {
    "cases":257.4188101073,
    "deaths":30.8902572129,
    "recovered":195.6382956815,
    "active":30.8902572129,
    "serious":10.2967524043,
    "tests":1884.3056899854,
    "cca3":"ATG",
    "country":"Antigua and Barbuda",
    "cca2":"AG",
    "population":0.097118,
    "flag":"\ud83c\udde6\ud83c\uddec"
  },
  {
    "cases":10.418036747,
    "deaths":0.4340848645,
    "recovered":5.2090183735,
    "active":4.7749335091,
    "serious":null,
    "tests":4141.1696069405,
    "cca3":"BWA",
    "country":"Botswana",
    "cca2":"BW",
    "population":2.303697,
    "flag":"\ud83c\udde7\ud83c\uddfc"
  },
  {
    "cases":18.5597767878,
    "deaths":null,
    "recovered":16.2398046893,
    "active":2.3199720985,
    "serious":null,
    "tests":570.7131362233,
    "cca3":"TLS",
    "country":"Timor-Leste",
    "cca2":"TL",
    "population":1.293119,
    "flag":"\ud83c\uddf9\ud83c\uddf1"
  },
  {
    "cases":9.370849672,
    "deaths":0.4259477124,
    "recovered":4.2594771236,
    "active":4.685424836,
    "serious":null,
    "tests":361.6296077959,
    "cca3":"GMB",
    "country":"Gambia",
    "cca2":"GM",
    "population":2.347706,
    "flag":"\ud83c\uddec\ud83c\uddf2"
  },
  {
    "cases":187.4949778131,
    "deaths":null,
    "recovered":116.0683195986,
    "active":71.4266582145,
    "serious":35.7133291073,
    "tests":12553.2351812005,
    "cca3":"GRD",
    "country":"Grenada",
    "cca2":"GD",
    "population":0.112003,
    "flag":"\ud83c\uddec\ud83c\udde9"
  },
  {
    "cases":2.6501317046,
    "deaths":null,
    "recovered":1.8132480084,
    "active":0.8368836962,
    "serious":null,
    "tests":494.7377450587,
    "cca3":"LAO",
    "country":"Laos",
    "cca2":"LA",
    "population":7.169455,
    "flag":"\ud83c\uddf1\ud83c\udde6"
  },
  {
    "cases":46.1121087836,
    "deaths":5.1235676426,
    "recovered":40.988541141,
    "active":0.0,
    "serious":null,
    "tests":2671.9405256268,
    "cca3":"BLZ",
    "country":"Belize",
    "cca2":"BZ",
    "population":0.390353,
    "flag":"\ud83c\udde7\ud83c\uddff"
  },
  {
    "cases":20.2257872045,
    "deaths":null,
    "recovered":15.7311678257,
    "active":4.4946193788,
    "serious":null,
    "tests":1460.7512981023,
    "cca3":"FJI",
    "country":"Fiji",
    "cca2":"FJ",
    "population":0.889953,
    "flag":"\ud83c\uddeb\ud83c\uddef"
  },
  {
    "cases":63.6604774536,
    "deaths":null,
    "recovered":63.6604774536,
    "active":0.0,
    "serious":null,
    "tests":19289.124668435,
    "cca3":"NCL",
    "country":"New Caledonia",
    "cca2":"NC",
    "population":0.28275,
    "flag":"\ud83c\uddf3\ud83c\udde8"
  },
  {
    "cases":98.4736582964,
    "deaths":null,
    "recovered":93.0028995022,
    "active":5.4707587942,
    "serious":null,
    "tests":3391.8704524318,
    "cca3":"LCA",
    "country":"Saint Lucia",
    "cca2":"LC",
    "population":0.18279,
    "flag":"\ud83c\uddf1\ud83c\udde8"
  },
  {
    "cases":153.7223412817,
    "deaths":null,
    "recovered":81.3824159727,
    "active":72.339925309,
    "serious":null,
    "tests":1238.8212209171,
    "cca3":"VCT",
    "country":"Saint Vincent and the Grenadines",
    "cca2":"VC",
    "population":0.110589,
    "flag":"\ud83c\uddfb\ud83c\udde8"
  },
  {
    "cases":2.4444267224,
    "deaths":0.7638833507,
    "recovered":1.069436691,
    "active":0.6111066806,
    "serious":null,
    "tests":null,
    "cca3":"NIC",
    "country":"Nicaragua",
    "cca2":"NI",
    "population":6.545502,
    "flag":"\ud83c\uddf3\ud83c\uddee"
  },
  {
    "cases":97.9048364989,
    "deaths":6.1190522812,
    "recovered":85.6667319366,
    "active":6.1190522812,
    "serious":null,
    "tests":2380.3113373801,
    "cca3":"CUW",
    "country":"Curacao",
    "cca2":"CW",
    "population":0.163424,
    "flag":"\ud83c\udde8\ud83c\uddfc"
  },
  {
    "cases":222.816399287,
    "deaths":null,
    "recovered":208.8903743316,
    "active":13.9260249554,
    "serious":null,
    "tests":5848.9304812834,
    "cca3":"DMA",
    "country":"Dominica",
    "cca2":"DM",
    "population":0.071808,
    "flag":"\ud83c\udde9\ud83c\uddf2"
  },
  {
    "cases":6.4140339062,
    "deaths":null,
    "recovered":4.4096483105,
    "active":2.0043855957,
    "serious":null,
    "tests":618.5533948279,
    "cca3":"NAM",
    "country":"Namibia",
    "cca2":null,
    "population":2.49453,
    "flag":"\ud83c\uddf3\ud83c\udde6"
  },
  {
    "cases":1.3008885936,
    "deaths":0.0867259062,
    "recovered":0.6070813437,
    "active":0.6070813437,
    "serious":null,
    "tests":24.6301573728,
    "cca3":"BDI",
    "country":"Burundi",
    "cca2":"BI",
    "population":11.53058,
    "flag":"\ud83c\udde7\ud83c\uddee"
  },
  {
    "cases":283.9672112527,
    "deaths":null,
    "recovered":265.0360638358,
    "active":18.9311474168,
    "serious":null,
    "tests":6190.4852053083,
    "cca3":"KNA",
    "country":"Saint Kitts and Nevis",
    "cca2":"KN",
    "population":0.052823,
    "flag":"\ud83c\uddf0\ud83c\uddf3"
  },
  {
    "cases":3849.5706248149,
    "deaths":null,
    "recovered":3849.5706248149,
    "active":0.0,
    "serious":null,
    "tests":119040.5685519692,
    "cca3":"FLK",
    "country":"Falkland Islands",
    "cca2":"FK",
    "population":0.003377,
    "flag":"\ud83c\uddeb\ud83c\uddf0"
  },
  {
    "cases":314.2101542248,
    "deaths":26.1841795187,
    "recovered":209.4734361499,
    "active":78.5525385562,
    "serious":null,
    "tests":2854.0755675421,
    "cca3":"TCA",
    "country":"Turks and Caicos Islands",
    "cca2":"TC",
    "population":0.038191,
    "flag":"\ud83c\uddf9\ud83c\udde8"
  },
  {
    "cases":15018.7734668335,
    "deaths":null,
    "recovered":2503.1289111389,
    "active":12515.6445556946,
    "serious":null,
    "tests":null,
    "cca3":"VAT",
    "country":"Vatican City",
    "cca2":"VA",
    "population":0.000799,
    "flag":"\ud83c\uddfb\ud83c\udde6"
  },
  {
    "cases":12.9277012432,
    "deaths":1.1752455676,
    "recovered":null,
    "active":11.7524556756,
    "serious":null,
    "tests":null,
    "cca3":"COM",
    "country":"Comoros",
    "cca2":"KM",
    "population":0.850886,
    "flag":"\ud83c\uddf0\ud83c\uddf2"
  },
  {
    "cases":2204.8506714773,
    "deaths":200.4409701343,
    "recovered":1603.5277610744,
    "active":400.8819402686,
    "serious":200.4409701343,
    "tests":7215.8749248346,
    "cca3":"MSR",
    "country":"Montserrat",
    "cca2":"MS",
    "population":0.004989,
    "flag":"\ud83c\uddf2\ud83c\uddf8"
  },
  {
    "cases":194.099378882,
    "deaths":null,
    "recovered":194.099378882,
    "active":0.0,
    "serious":null,
    "tests":25779.926595144,
    "cca3":"GRL",
    "country":"Greenland",
    "cca2":"GL",
    "population":0.056672,
    "flag":"\ud83c\uddec\ud83c\uddf1"
  },
  {
    "cases":112.5446341788,
    "deaths":null,
    "recovered":102.3133037989,
    "active":10.2313303799,
    "serious":null,
    "tests":null,
    "cca3":"SYC",
    "country":"Seychelles",
    "cca2":"SC",
    "population":0.097739,
    "flag":"\ud83c\uddf8\ud83c\udde8"
  },
  {
    "cases":17.2006907797,
    "deaths":1.720069078,
    "recovered":15.4806217018,
    "active":0.0,
    "serious":null,
    "tests":694.9079075016,
    "cca3":"SUR",
    "country":"Suriname",
    "cca2":"SR",
    "population":0.581372,
    "flag":"\ud83c\uddf8\ud83c\uddf7"
  },
  {
    "cases":11.7941218097,
    "deaths":null,
    "recovered":6.5522898943,
    "active":5.2418319154,
    "serious":null,
    "tests":15296.975987168,
    "cca3":"BTN",
    "country":"Bhutan",
    "cca2":"BT",
    "population":0.763092,
    "flag":"\ud83c\udde7\ud83c\uddf9"
  },
  {
    "cases":1.7676839098,
    "deaths":0.2209604887,
    "recovered":1.3257629324,
    "active":0.2209604887,
    "serious":null,
    "tests":445.2353847894,
    "cca3":"MRT",
    "country":"Mauritania",
    "cca2":"MR",
    "population":4.525696,
    "flag":"\ud83c\uddf2\ud83c\uddf7"
  },
  {
    "cases":0.9115657064,
    "deaths":null,
    "recovered":0.9115657064,
    "active":0.0,
    "serious":null,
    "tests":273.6976033456,
    "cca3":"PNG",
    "country":"Papua New Guinea",
    "cca2":"PG",
    "population":8.776109,
    "flag":"\ud83c\uddf5\ud83c\uddec"
  },
  {
    "cases":233.1002331002,
    "deaths":33.3000333,
    "recovered":133.2001332001,
    "active":66.6000666001,
    "serious":null,
    "tests":5561.1055611056,
    "cca3":"VGB",
    "country":"British Virgin Islands",
    "cca2":"VG",
    "population":0.03003,
    "flag":"\ud83c\uddfb\ud83c\uddec"
  },
  {
    "cases":609.3226363359,
    "deaths":null,
    "recovered":609.3226363359,
    "active":0.0,
    "serious":null,
    "tests":null,
    "cca3":"BLM",
    "country":"Saint Barth\u00e9lemy",
    "cca2":"BL",
    "population":0.009847,
    "flag":"\ud83c\udde7\ud83c\uddf1"
  },
  {
    "cases":10.3010835023,
    "deaths":null,
    "recovered":10.3010835023,
    "active":0.0,
    "serious":null,
    "tests":null,
    "cca3":"ESH",
    "country":"Western Sahara",
    "cca2":"EH",
    "population":0.582463,
    "flag":"\ud83c\uddea\ud83c\udded"
  },
  {
    "cases":201.7620552828,
    "deaths":null,
    "recovered":201.7620552828,
    "active":0.0,
    "serious":null,
    "tests":null,
    "cca3":"AIA",
    "country":"Anguilla",
    "cca2":"AI",
    "population":0.014869,
    "flag":"\ud83c\udde6\ud83c\uddee"
  },
  {
    "cases":171.7622810031,
    "deaths":null,
    "recovered":171.7622810031,
    "active":0.0,
    "serious":null,
    "tests":null,
    "cca3":"SPM",
    "country":"Saint Pierre and Miquelon",
    "cca2":"PM",
    "population":0.005822,
    "flag":"\ud83c\uddf5\ud83c\uddf2"
  },
  {
    "cases":57.8322942363,
    "deaths":3.2313103052,
    "recovered":54.5207765741,
    "active":0.080207357,
    "serious":0.0069745528,
    "tests":null,
    "cca3":"CHN",
    "country":"China",
    "cca2":"CN",
    "population":1433.783686,
    "flag":"\ud83c\udde8\ud83c\uddf3"
  }
]